simulation/qsim/vhdl_mux8.msim.vcd
$comment
	File created using the following command:
		vcd file vhdl_mux8.msim.vcd -direction
$end
$date
	Sat Feb 29 16:11:35 2020
$end
$version
	ModelSim Version 10.3d
$end
$timescale
	1ps
$end

$scope module vhdl_mux8_vlg_vec_tst $end
$var reg 8 ! A [7:0] $end
$var reg 3 " sel [2:0] $end
$var wire 1 # X $end
$var wire 1 $ sampler $end

$scope module i1 $end
$var wire 1 % gnd $end
$var wire 1 & vcc $end
$var wire 1 ' unknown $end
$var tri1 1 ( devclrn $end
$var tri1 1 ) devpor $end
$var tri1 1 * devoe $end
$var wire 1 + X~output_o $end
$var wire 1 , sel[1]~input_o $end
$var wire 1 - A[3]~input_o $end
$var wire 1 . A[2]~input_o $end
$var wire 1 / A[0]~input_o $end
$var wire 1 0 A[1]~input_o $end
$var wire 1 1 sel[0]~input_o $end
$var wire 1 2 Mux0~2_combout $end
$var wire 1 3 Mux0~3_combout $end
$var wire 1 4 sel[2]~input_o $end
$var wire 1 5 A[5]~input_o $end
$var wire 1 6 A[7]~input_o $end
$var wire 1 7 A[6]~input_o $end
$var wire 1 8 A[4]~input_o $end
$var wire 1 9 Mux0~0_combout $end
$var wire 1 : Mux0~1_combout $end
$var wire 1 ; Mux0~4_combout $end
$upscope $end
$upscope $end
$enddefinitions $end
#0
$dumpvars
b0 !
b0 "
0#
x$
0%
1&
x'
1(
1)
1*
0+
0,
0-
0.
0/
00
01
02
03
04
05
06
07
08
09
0:
0;
$end
#10000
b1 !
b1 "
11
1/
0$
#20000
b11 !
b11 "
b10 !
b10 "
01
1,
0/
10
1$
#30000
b11 !
b11 "
11
1/
0$
19
12
#40000
b111 !
b111 "
b101 !
b101 "
b100 !
b100 "
01
0,
14
0/
00
1.
1$
1:
09
02
13
0:
03
1;
1+
1#
0;
0+
0#
#50000
b101 !
b101 "
11
1/
0$
#60000
b111 !
b111 "
b110 !
b110 "
01
1,
0/
10
1$
13
#70000
b111 !
b111 "
11
1/
0$
19
12
03
#80000
b1111 !
b1011 !
b11 "
b1001 !
b1 "
b1000 !
b0 "
01
0,
04
0/
00
0.
1-
1$
1:
09
02
13
0:
03
1;
1+
1#
0;
0+
0#
#90000
b1001 !
b1 "
11
1/
0$
#100000
b1011 !
b11 "
b1010 !
b10 "
01
1,
0/
10
1$
#110000
b1011 !
b11 "
11
1/
0$
19
12
13
1;
1+
1#
#120000
b1111 !
b111 "
b1101 !
b101 "
b1100 !
b100 "
01
0,
14
0/
00
1.
1$
1:
09
02
0;
0+
0:
03
0#
1;
1+
1#
0;
0+
0#
#130000
b1101 !
b101 "
11
1/
0$
#140000
b1111 !
b111 "
b1110 !
b110 "
01
1,
0/
10
1$
13
#150000
b1111 !
b111 "
11
1/
0$
19
12
#160000
b11111 !
b10111 !
b10011 !
b11 "
b10001 !
b1 "
b10000 !
b0 "
01
0,
04
0/
00
0.
0-
18
1$
1:
02
1;
1+
03
1#
0;
0+
0#
#170000
b10001 !
b1 "
11
1/
0$
0:
09
#180000
b10011 !
b11 "
b10010 !
b10 "
01
1,
0/
10
1$
#190000
b10011 !
b11 "
11
1/
0$
19
12
#200000
b10111 !
b111 "
b10101 !
b101 "
b10100 !
b100 "
01
0,
14
0/
00
1.
1$
1:
02
13
03
1;
1+
1#
#210000
b10101 !
b101 "
11
1/
0$
0:
09
0;
0+
0#
#220000
b10111 !
b111 "
b10110 !
b110 "
01
1,
0/
10
1$
13
#230000
b10111 !
b111 "
11
1/
0$
19
12
03
#240000
b11111 !
b11011 !
b11 "
b11001 !
b1 "
b11000 !
b0 "
01
0,
04
0/
00
0.
1-
1$
1:
02
13
03
1;
1+
1#
0;
0+
0#
#250000
b11001 !
b1 "
11
1/
0$
0:
09
#260000
b11011 !
b11 "
b11010 !
b10 "
01
1,
0/
10
1$
#270000
b11011 !
b11 "
11
1/
0$
19
12
13
1;
1+
1#
#280000
b11111 !
b111 "
b11101 !
b101 "
b11100 !
b100 "
01
0,
14
0/
00
1.
1$
1:
02
0;
0+
03
0#
1;
1+
1#
#290000
b11101 !
b101 "
11
1/
0$
0:
09
0;
0+
0#
#300000
b11111 !
b111 "
b11110 !
b110 "
01
1,
0/
10
1$
13
#310000
b11111 !
b111 "
11
1/
0$
19
12
#320000
b111111 !
b101111 !
b100111 !
b100011 !
b11 "
b100001 !
b1 "
b100000 !
b0 "
01
0,
04
0/
00
0.
0-
08
15
1$
1:
09
02
1;
1+
0:
03
1#
0;
0+
0#
#330000
b100001 !
b1 "
11
1/
0$
1:
#340000
b100011 !
b11 "
b100010 !
b10 "
01
1,
0/
10
1$
0:
#350000
b100011 !
b11 "
11
1/
0$
1:
19
12
0:
#360000
b100111 !
b111 "
b100101 !
b101 "
b100100 !
b100 "
01
0,
14
0/
00
1.
1$
1:
09
02
13
0:
03
1;
1+
1#
0;
0+
0#
#370000
b100101 !
b101 "
11
1/
0$
1:
1;
1+
1#
#380000
b100111 !
b111 "
b100110 !
b110 "
01
1,
0/
10
1$
0:
13
0;
0+
0#
#390000
b100111 !
b111 "
11
1/
0$
1:
19
12
0:
03
1;
1+
1#
0;
0+
0#
#400000
b101111 !
b101011 !
b11 "
b101001 !
b1 "
b101000 !
b0 "
01
0,
04
0/
00
0.
1-
1$
1:
09
02
13
0:
03
1;
1+
1#
0;
0+
0#
#410000
b101001 !
b1 "
11
1/
0$
1:
#420000
b101011 !
b11 "
b101010 !
b10 "
01
1,
0/
10
1$
0:
#430000
b101011 !
b11 "
11
1/
0$
1:
19
12
0:
13
1;
1+
1#
#440000
b101111 !
b111 "
b101101 !
b101 "
b101100 !
b100 "
01
0,
14
0/
00
1.
1$
1:
09
02
0;
0+
0:
03
0#
1;
1+
1#
0;
0+
0#
#450000
b101101 !
b101 "
11
1/
0$
1:
1;
1+
1#
#460000
b101111 !
b111 "
b101110 !
b110 "
01
1,
0/
10
1$
0:
13
0;
0+
0#
#470000
b101111 !
b111 "
11
1/
0$
1:
19
12
0:
1;
1+
1#
0;
0+
0#
#480000
b111111 !
b110111 !
b110011 !
b11 "
b110001 !
b1 "
b110000 !
b0 "
01
0,
04
0/
00
0.
0-
18
1$
1:
02
1;
1+
03
1#
0;
0+
0#
#490000
b110001 !
b1 "
11
1/
0$
0:
09
1:
#500000
b110011 !
b11 "
b110010 !
b10 "
01
1,
0/
10
1$
0:
#510000
b110011 !
b11 "
11
1/
0$
1:
19
12
0:
#520000
b110111 !
b111 "
b110101 !
b101 "
b110100 !
b100 "
01
0,
14
0/
00
1.
1$
1:
02
13
03
1;
1+
1#
#530000
b110101 !
b101 "
11
1/
0$
0:
09
1:
0;
0+
0#
1;
1+
1#
#540000
b110111 !
b111 "
b110110 !
b110 "
01
1,
0/
10
1$
0:
13
0;
0+
0#
#550000
b110111 !
b111 "
11
1/
0$
1:
19
12
0:
03
1;
1+
1#
0;
0+
0#
#560000
b111111 !
b111011 !
b11 "
b111001 !
b1 "
b111000 !
b0 "
01
0,
04
0/
00
0.
1-
1$
1:
02
13
03
1;
1+
1#
0;
0+
0#
#570000
b111001 !
b1 "
11
1/
0$
0:
09
1:
#580000
b111011 !
b11 "
b111010 !
b10 "
01
1,
0/
10
1$
0:
#590000
b111011 !
b11 "
11
1/
0$
1:
19
12
0:
13
1;
1+
1#
#600000
b111111 !
b111 "
b111101 !
b101 "
b111100 !
b100 "
01
0,
14
0/
00
1.
1$
1:
02
0;
0+
03
0#
1;
1+
1#
#610000
b111101 !
b101 "
11
1/
0$
0:
09
1:
0;
0+
0#
1;
1+
1#
#620000
b111111 !
b111 "
b111110 !
b110 "
01
1,
0/
10
1$
0:
13
0;
0+
0#
#630000
b111111 !
b111 "
11
1/
0$
1:
19
12
0:
1;
1+
1#
0;
0+
0#
#640000
b1111111 !
b1011111 !
b1001111 !
b1000111 !
b1000011 !
b11 "
b1000001 !
b1 "
b1000000 !
b0 "
01
0,
04
0/
00
0.
0-
08
05
17
1$
1:
09
02
1;
1+
0:
03
1#
0;
0+
0#
#650000
b1000001 !
b1 "
11
1/
0$
#660000
b1000011 !
b11 "
b1000010 !
b10 "
01
1,
0/
10
1$
19
1:
#670000
b1000011 !
b11 "
11
1/
0$
0:
12
#680000
b1000111 !
b111 "
b1000101 !
b101 "
b1000100 !
b100 "
01
0,
14
0/
00
1.
1$
1:
09
02
13
0:
03
1;
1+
1#
0;
0+
0#
#690000
b1000101 !
b101 "
11
1/
0$
#700000
b1000111 !
b111 "
b1000110 !
b110 "
01
1,
0/
10
1$
19
13
1:
1;
1+
1#
#710000
b1000111 !
b111 "
11
1/
0$
0:
12
03
0;
0+
0#
#720000
b1001111 !
b1001011 !
b11 "
b1001001 !
b1 "
b1001000 !
b0 "
01
0,
04
0/
00
0.
1-
1$
1:
09
02
13
0:
03
1;
1+
1#
0;
0+
0#
#730000
b1001001 !
b1 "
11
1/
0$
#740000
b1001011 !
b11 "
b1001010 !
b10 "
01
1,
0/
10
1$
19
1:
#750000
b1001011 !
b11 "
11
1/
0$
0:
12
13
1;
1+
1#
#760000
b1001111 !
b111 "
b1001101 !
b101 "
b1001100 !
b100 "
01
0,
14
0/
00
1.
1$
1:
09
02
0;
0+
0:
03
0#
1;
1+
1#
0;
0+
0#
#770000
b1001101 !
b101 "
11
1/
0$
#780000
b1001111 !
b111 "
b1001110 !
b110 "
01
1,
0/
10
1$
19
13
1:
1;
1+
1#
#790000
b1001111 !
b111 "
11
1/
0$
0:
12
0;
0+
0#
#800000
b1011111 !
b1010111 !
b1010011 !
b11 "
b1010001 !
b1 "
b1010000 !
b0 "
01
0,
04
0/
00
0.
0-
18
1$
1:
02
1;
1+
03
1#
0;
0+
0#
#810000
b1010001 !
b1 "
11
1/
0$
0:
09
#820000
b1010011 !
b11 "
b1010010 !
b10 "
01
1,
0/
10
1$
19
1:
#830000
b1010011 !
b11 "
11
1/
0$
0:
12
#840000
b1010111 !
b111 "
b1010101 !
b101 "
b1010100 !
b100 "
01
0,
14
0/
00
1.
1$
1:
02
13
03
1;
1+
1#
#850000
b1010101 !
b101 "
11
1/
0$
0:
09
0;
0+
0#
#860000
b1010111 !
b111 "
b1010110 !
b110 "
01
1,
0/
10
1$
19
13
1:
1;
1+
1#
#870000
b1010111 !
b111 "
11
1/
0$
0:
12
03
0;
0+
0#
#880000
b1011111 !
b1011011 !
b11 "
b1011001 !
b1 "
b1011000 !
b0 "
01
0,
04
0/
00
0.
1-
1$
1:
02
13
03
1;
1+
1#
0;
0+
0#
#890000
b1011001 !
b1 "
11
1/
0$
0:
09
#900000
b1011011 !
b11 "
b1011010 !
b10 "
01
1,
0/
10
1$
19
1:
#910000
b1011011 !
b11 "
11
1/
0$
0:
12
13
1;
1+
1#
#920000
b1011111 !
b111 "
b1011101 !
b101 "
b1011100 !
b100 "
01
0,
14
0/
00
1.
1$
1:
02
0;
0+
03
0#
1;
1+
1#
#930000
b1011101 !
b101 "
11
1/
0$
0:
09
0;
0+
0#
#940000
b1011111 !
b111 "
b1011110 !
b110 "
01
1,
0/
10
1$
19
13
1:
1;
1+
1#
#950000
b1011111 !
b111 "
11
1/
0$
0:
12
0;
0+
0#
#960000
b1111111 !
b1101111 !
b1100111 !
b1100011 !
b11 "
b1100001 !
b1 "
b1100000 !
b0 "
01
0,
04
0/
00
0.
0-
08
15
1$
1:
09
02
1;
1+
0:
03
1#
0;
0+
0#
#970000
b1100001 !
b1 "
11
1/
0$
1:
#980000
b1100011 !
b11 "
b1100010 !
b10 "
01
1,
0/
10
1$
0:
19
1:
#990000
b1100011 !
b11 "
11
1/
0$
0:
12
